<?xml version="1.0"?>
<!DOCTYPE svg PUBLIC '-//W3C//DTD SVG 1.0//EN'
          'http://www.w3.org/TR/2001/REC-SVG-20010904/DTD/svg10.dtd'>
<svg xmlns:xlink="http://www.w3.org/1999/xlink" style="fill-opacity:1; color-rendering:auto; color-interpolation:auto; text-rendering:auto; stroke:black; stroke-linecap:square; stroke-miterlimit:10; shape-rendering:auto; stroke-opacity:1; fill:black; stroke-dasharray:none; font-weight:normal; stroke-width:1; font-family:'Dialog'; font-style:normal; stroke-linejoin:miter; font-size:12px; stroke-dashoffset:0; image-rendering:auto;" width="815" height="313" xmlns="http://www.w3.org/2000/svg"
><!--Generated by the Batik Graphics2D SVG Generator--><defs id="genericDefs"
  /><g
  ><defs id="defs1"
    ><clipPath clipPathUnits="userSpaceOnUse" id="clipPath1"
      ><path d="M0 0 L815 0 L815 313 L0 313 L0 0 Z"
      /></clipPath
      ><font horiz-adv-x="75.0" id="font1"
      ><font-face ascent="100.53711" descent="21.972656" units-per-em="100" style="font-style:normal; font-family:SansSerif; font-weight:normal;"
        /><missing-glyph horiz-adv-x="75.0" d="M12.5 0 L12.5 62.5 L62.5 62.5 L62.5 0 L12.5 0 ZM14.0625 1.5625 L60.9375 1.5625 L60.9375 60.9375 L14.0625 60.9375 L14.0625 1.5625 Z"
        /><glyph unicode="0" horiz-adv-x="55.615234" d="M4.1562 35.2969 Q4.1562 48 6.7656 55.7422 Q9.375 63.4844 14.5234 67.6797 Q19.6719 71.875 27.4844 71.875 Q33.25 71.875 37.5938 69.5547 Q41.9375 67.2344 44.7734 62.8672 Q47.6094 58.5 49.2188 52.2266 Q50.8281 45.9531 50.8281 35.2969 Q50.8281 22.7031 48.2422 14.9688 Q45.6562 7.2344 40.5078 3.0078 Q35.3594 -1.2188 27.4844 -1.2188 Q17.1406 -1.2188 11.2344 6.2031 Q4.1562 15.1406 4.1562 35.2969 ZM13.1875 35.2969 Q13.1875 17.6719 17.3125 11.8359 Q21.4375 6 27.4844 6 Q33.5469 6 37.6719 11.8594 Q41.7969 17.7188 41.7969 35.2969 Q41.7969 52.9844 37.6719 58.7891 Q33.5469 64.5938 27.3906 64.5938 Q21.3438 64.5938 17.7188 59.4688 Q13.1875 52.9375 13.1875 35.2969 Z"
        /><glyph unicode="5" horiz-adv-x="55.615234" d="M4.1562 18.75 L13.375 19.5312 Q14.4062 12.7969 18.1406 9.3984 Q21.875 6 27.1562 6 Q33.5 6 37.8906 10.7891 Q42.2812 15.5781 42.2812 23.4844 Q42.2812 31 38.0625 35.3516 Q33.8438 39.7031 27 39.7031 Q22.75 39.7031 19.3359 37.7734 Q15.9219 35.8438 13.9688 32.7656 L5.7188 33.8438 L12.6406 70.6094 L48.25 70.6094 L48.25 62.2031 L19.6719 62.2031 L15.8281 42.9688 Q22.2656 47.4688 29.3438 47.4688 Q38.7188 47.4688 45.1641 40.9688 Q51.6094 34.4688 51.6094 24.2656 Q51.6094 14.5469 45.9531 7.4688 Q39.0625 -1.2188 27.1562 -1.2188 Q17.3906 -1.2188 11.2109 4.25 Q5.0312 9.7188 4.1562 18.75 Z"
        /><glyph unicode="1" horiz-adv-x="55.615234" d="M37.25 0 L28.4688 0 L28.4688 56 Q25.2969 52.9844 20.1406 49.9531 Q14.9844 46.9219 10.8906 45.4062 L10.8906 53.9062 Q18.2656 57.375 23.7812 62.3047 Q29.2969 67.2344 31.5938 71.875 L37.25 71.875 L37.25 0 Z"
        /><glyph unicode="2" horiz-adv-x="55.615234" d="M50.3438 8.4531 L50.3438 0 L3.0312 0 Q2.9375 3.1719 4.0469 6.1094 Q5.8594 10.9375 9.8359 15.625 Q13.8125 20.3125 21.3438 26.4688 Q33.0156 36.0312 37.1172 41.625 Q41.2188 47.2188 41.2188 52.2031 Q41.2188 57.4219 37.4766 61.0078 Q33.7344 64.5938 27.7344 64.5938 Q21.3906 64.5938 17.5781 60.7891 Q13.7656 56.9844 13.7188 50.25 L4.6875 51.1719 Q5.6094 61.2812 11.6641 66.5781 Q17.7188 71.875 27.9375 71.875 Q38.2344 71.875 44.2422 66.1641 Q50.25 60.4531 50.25 52 Q50.25 47.7031 48.4922 43.5547 Q46.7344 39.4062 42.6562 34.8125 Q38.5781 30.2188 29.1094 22.2188 Q21.1875 15.5781 18.9453 13.2109 Q16.7031 10.8438 15.2344 8.4531 L50.3438 8.4531 Z"
        /><glyph unicode="3" horiz-adv-x="55.615234" d="M4.2031 18.8906 L12.9844 20.0625 Q14.5 12.5938 18.1406 9.2969 Q21.7812 6 27 6 Q33.2031 6 37.4766 10.2969 Q41.75 14.5938 41.75 20.9531 Q41.75 27 37.7969 30.9297 Q33.8438 34.8594 27.7344 34.8594 Q25.25 34.8594 21.5312 33.8906 L22.5156 41.6094 Q23.3906 41.5 23.9219 41.5 Q29.5469 41.5 34.0391 44.4297 Q38.5312 47.3594 38.5312 53.4688 Q38.5312 58.2969 35.2578 61.4766 Q31.9844 64.6562 26.8125 64.6562 Q21.6875 64.6562 18.2656 61.4297 Q14.8438 58.2031 13.875 51.7656 L5.0781 53.3281 Q6.6875 62.1562 12.3984 67.0156 Q18.1094 71.875 26.6094 71.875 Q32.4688 71.875 37.3984 69.3594 Q42.3281 66.8438 44.9453 62.5 Q47.5625 58.1562 47.5625 53.2656 Q47.5625 48.6406 45.0703 44.8281 Q42.5781 41.0156 37.7031 38.7656 Q44.0469 37.3125 47.5625 32.6953 Q51.0781 28.0781 51.0781 21.1406 Q51.0781 11.7656 44.2422 5.25 Q37.4062 -1.2656 26.9531 -1.2656 Q17.5312 -1.2656 11.3047 4.3516 Q5.0781 9.9688 4.2031 18.8906 Z"
        /><glyph unicode="]" horiz-adv-x="27.783203" d="M21.2969 -19.875 L1.9062 -19.875 L1.9062 -12.5938 L12.5 -12.5938 L12.5 64.3125 L1.9062 64.3125 L1.9062 71.5781 L21.2969 71.5781 L21.2969 -19.875 Z"
        /><glyph unicode="m" horiz-adv-x="83.30078" d="M6.5938 0 L6.5938 51.8594 L14.4531 51.8594 L14.4531 44.5781 Q16.8906 48.3906 20.9453 50.7109 Q25 53.0312 30.1719 53.0312 Q35.9375 53.0312 39.625 50.6406 Q43.3125 48.25 44.8281 43.9531 Q50.9844 53.0312 60.8438 53.0312 Q68.5625 53.0312 72.7109 48.7578 Q76.8594 44.4844 76.8594 35.5938 L76.8594 0 L68.1094 0 L68.1094 32.6719 Q68.1094 37.9375 67.2578 40.2578 Q66.4062 42.5781 64.1641 43.9922 Q61.9219 45.4062 58.8906 45.4062 Q53.4219 45.4062 49.8047 41.7734 Q46.1875 38.1406 46.1875 30.125 L46.1875 0 L37.4062 0 L37.4062 33.6875 Q37.4062 39.5469 35.2578 42.4766 Q33.1094 45.4062 28.2188 45.4062 Q24.5156 45.4062 21.3672 43.4531 Q18.2188 41.5 16.7969 37.7422 Q15.375 33.9844 15.375 26.9062 L15.375 0 L6.5938 0 Z"
        /><glyph unicode="[" horiz-adv-x="27.783203" d="M6.7812 -19.875 L6.7812 71.5781 L26.1719 71.5781 L26.1719 64.3125 L15.5781 64.3125 L15.5781 -12.5938 L26.1719 -12.5938 L26.1719 -19.875 L6.7812 -19.875 Z"
        /><glyph unicode=" " horiz-adv-x="27.783203" d=""
        /><glyph unicode="e" horiz-adv-x="55.615234" d="M42.0938 16.7031 L51.1719 15.5781 Q49.0312 7.625 43.2188 3.2266 Q37.4062 -1.1719 28.375 -1.1719 Q17 -1.1719 10.3281 5.8359 Q3.6562 12.8438 3.6562 25.4844 Q3.6562 38.5781 10.3984 45.8047 Q17.1406 53.0312 27.875 53.0312 Q38.2812 53.0312 44.875 45.9531 Q51.4688 38.875 51.4688 26.0312 Q51.4688 25.25 51.4219 23.6875 L12.75 23.6875 Q13.2344 15.1406 17.5781 10.6016 Q21.9219 6.0625 28.4219 6.0625 Q33.25 6.0625 36.6719 8.6016 Q40.0938 11.1406 42.0938 16.7031 ZM13.2344 30.9062 L42.1875 30.9062 Q41.6094 37.4531 38.875 40.7188 Q34.6719 45.7969 27.9844 45.7969 Q21.9219 45.7969 17.7969 41.75 Q13.6719 37.7031 13.2344 30.9062 Z"
        /><glyph unicode="c" horiz-adv-x="50.0" d="M40.4375 19 L49.0781 17.875 Q47.6562 8.9375 41.8203 3.8828 Q35.9844 -1.1719 27.4844 -1.1719 Q16.8438 -1.1719 10.375 5.7891 Q3.9062 12.75 3.9062 25.7344 Q3.9062 34.125 6.6875 40.4297 Q9.4688 46.7344 15.1562 49.8828 Q20.8438 53.0312 27.5469 53.0312 Q35.9844 53.0312 41.3594 48.7578 Q46.7344 44.4844 48.25 36.625 L39.7031 35.2969 Q38.4844 40.5312 35.3828 43.1641 Q32.2812 45.7969 27.875 45.7969 Q21.2344 45.7969 17.0859 41.0391 Q12.9375 36.2812 12.9375 25.9844 Q12.9375 15.5312 16.9453 10.7969 Q20.9531 6.0625 27.3906 6.0625 Q32.5625 6.0625 36.0312 9.2344 Q39.5 12.4062 40.4375 19 Z"
        /><glyph unicode="n" horiz-adv-x="55.615234" d="M6.5938 0 L6.5938 51.8594 L14.5 51.8594 L14.5 44.4844 Q20.2188 53.0312 31 53.0312 Q35.6875 53.0312 39.625 51.3438 Q43.5625 49.6562 45.5156 46.9219 Q47.4688 44.1875 48.25 40.4375 Q48.7344 37.9844 48.7344 31.8906 L48.7344 0 L39.9375 0 L39.9375 31.5469 Q39.9375 36.9219 38.9141 39.5781 Q37.8906 42.2344 35.2812 43.8203 Q32.6719 45.4062 29.1562 45.4062 Q23.5312 45.4062 19.4531 41.8438 Q15.375 38.2812 15.375 28.3281 L15.375 0 L6.5938 0 Z"
        /><glyph unicode="a" horiz-adv-x="55.615234" d="M40.4375 6.3906 Q35.5469 2.25 31.0312 0.5391 Q26.5156 -1.1719 21.3438 -1.1719 Q12.7969 -1.1719 8.2031 3 Q3.6094 7.1719 3.6094 13.6719 Q3.6094 17.4844 5.3438 20.6328 Q7.0781 23.7812 9.8906 25.6875 Q12.7031 27.5938 16.2188 28.5625 Q18.7969 29.25 24.0312 29.8906 Q34.6719 31.1562 39.7031 32.9062 Q39.75 34.7188 39.75 35.2031 Q39.75 40.5781 37.25 42.7812 Q33.8906 45.75 27.25 45.75 Q21.0469 45.75 18.0938 43.5781 Q15.1406 41.4062 13.7188 35.8906 L5.125 37.0625 Q6.2969 42.5781 8.9844 45.9688 Q11.6719 49.3594 16.75 51.1953 Q21.8281 53.0312 28.5156 53.0312 Q35.1562 53.0312 39.3047 51.4688 Q43.4531 49.9062 45.4062 47.5391 Q47.3594 45.1719 48.1406 41.5469 Q48.5781 39.3125 48.5781 33.4531 L48.5781 21.7344 Q48.5781 9.4688 49.1406 6.2266 Q49.7031 2.9844 51.375 0 L42.1875 0 Q40.8281 2.7344 40.4375 6.3906 ZM39.7031 26.0312 Q34.9062 24.0781 25.3438 22.7031 Q19.9219 21.9219 17.6797 20.9453 Q15.4375 19.9688 14.2109 18.0938 Q12.9844 16.2188 12.9844 13.9219 Q12.9844 10.4062 15.6484 8.0625 Q18.3125 5.7188 23.4375 5.7188 Q28.5156 5.7188 32.4688 7.9375 Q36.4219 10.1562 38.2812 14.0156 Q39.7031 17 39.7031 22.7969 L39.7031 26.0312 Z"
        /><glyph unicode="t" horiz-adv-x="27.783203" d="M25.7812 7.8594 L27.0469 0.0938 Q23.3438 -0.6875 20.4062 -0.6875 Q15.625 -0.6875 12.9922 0.8281 Q10.3594 2.3438 9.2812 4.8125 Q8.2031 7.2812 8.2031 15.1875 L8.2031 45.0156 L1.7656 45.0156 L1.7656 51.8594 L8.2031 51.8594 L8.2031 64.7031 L16.9375 69.9688 L16.9375 51.8594 L25.7812 51.8594 L25.7812 45.0156 L16.9375 45.0156 L16.9375 14.7031 Q16.9375 10.9375 17.4062 9.8672 Q17.875 8.7969 18.9219 8.1562 Q19.9688 7.5156 21.9219 7.5156 Q23.3906 7.5156 25.7812 7.8594 Z"
        /><glyph unicode="s" horiz-adv-x="50.0" d="M3.0781 15.4844 L11.7656 16.8438 Q12.5 11.625 15.8438 8.8438 Q19.1875 6.0625 25.2031 6.0625 Q31.25 6.0625 34.1797 8.5234 Q37.1094 10.9844 37.1094 14.3125 Q37.1094 17.2812 34.5156 19 Q32.7188 20.1719 25.5312 21.9688 Q15.875 24.4219 12.1406 26.2031 Q8.4062 27.9844 6.4766 31.1328 Q4.5469 34.2812 4.5469 38.0938 Q4.5469 41.5469 6.1328 44.5078 Q7.7188 47.4688 10.4531 49.4219 Q12.5 50.9219 16.0391 51.9766 Q19.5781 53.0312 23.6406 53.0312 Q29.7344 53.0312 34.3516 51.2734 Q38.9688 49.5156 41.1641 46.5078 Q43.3594 43.5 44.1875 38.4844 L35.5938 37.3125 Q35.0156 41.3125 32.2031 43.5547 Q29.3906 45.7969 24.2656 45.7969 Q18.2188 45.7969 15.625 43.7969 Q13.0312 41.7969 13.0312 39.1094 Q13.0312 37.4062 14.1094 36.0312 Q15.1875 34.625 17.4844 33.6875 Q18.7969 33.2031 25.25 31.4531 Q34.5781 28.9531 38.2578 27.3672 Q41.9375 25.7812 44.0391 22.7578 Q46.1406 19.7344 46.1406 15.2344 Q46.1406 10.8438 43.5781 6.9609 Q41.0156 3.0781 36.1797 0.9531 Q31.3438 -1.1719 25.25 -1.1719 Q15.1406 -1.1719 9.8438 3.0312 Q4.5469 7.2344 3.0781 15.4844 Z"
        /><glyph unicode="i" horiz-adv-x="22.216797" d="M6.6406 61.4688 L6.6406 71.5781 L15.4375 71.5781 L15.4375 61.4688 L6.6406 61.4688 ZM6.6406 0 L6.6406 51.8594 L15.4375 51.8594 L15.4375 0 L6.6406 0 Z"
        /><glyph unicode="D" horiz-adv-x="72.2168" d="M7.7188 0 L7.7188 71.5781 L32.375 71.5781 Q40.7188 71.5781 45.125 70.5625 Q51.2656 69.1406 55.6094 65.4375 Q61.2812 60.6406 64.0859 53.1953 Q66.8906 45.75 66.8906 36.1875 Q66.8906 28.0312 64.9922 21.7344 Q63.0938 15.4375 60.1094 11.3047 Q57.125 7.1719 53.5859 4.8047 Q50.0469 2.4375 45.0469 1.2188 Q40.0469 0 33.5469 0 L7.7188 0 ZM17.1875 8.4531 L32.4688 8.4531 Q39.5469 8.4531 43.5781 9.7656 Q47.6094 11.0781 50 13.4844 Q53.375 16.8438 55.25 22.5312 Q57.125 28.2188 57.125 36.3281 Q57.125 47.5625 53.4375 53.5938 Q49.75 59.625 44.4844 61.6719 Q40.6719 63.1406 32.2344 63.1406 L17.1875 63.1406 L17.1875 8.4531 Z"
        /><glyph unicode="h" horiz-adv-x="55.615234" d="M6.5938 0 L6.5938 71.5781 L15.375 71.5781 L15.375 45.9062 Q21.5312 53.0312 30.9062 53.0312 Q36.6719 53.0312 40.9219 50.7578 Q45.1719 48.4844 47 44.4844 Q48.8281 40.4844 48.8281 32.8594 L48.8281 0 L40.0469 0 L40.0469 32.8594 Q40.0469 39.4531 37.1875 42.4531 Q34.3281 45.4531 29.1094 45.4531 Q25.2031 45.4531 21.7578 43.4297 Q18.3125 41.4062 16.8438 37.9375 Q15.375 34.4688 15.375 28.375 L15.375 0 L6.5938 0 Z"
        /><glyph unicode="g" horiz-adv-x="55.615234" d="M4.9844 -4.2969 L13.5312 -5.5625 Q14.0625 -9.5156 16.5 -11.3281 Q19.7812 -13.7656 25.4375 -13.7656 Q31.5469 -13.7656 34.8672 -11.3281 Q38.1875 -8.8906 39.3594 -4.5 Q40.0469 -1.8125 39.9844 6.7812 Q34.2344 0 25.6406 0 Q14.9375 0 9.0781 7.7188 Q3.2188 15.4375 3.2188 26.2188 Q3.2188 33.6406 5.9062 39.9141 Q8.5938 46.1875 13.6953 49.6094 Q18.7969 53.0312 25.6875 53.0312 Q34.8594 53.0312 40.8281 45.6094 L40.8281 51.8594 L48.9219 51.8594 L48.9219 7.0312 Q48.9219 -5.0781 46.4609 -10.1328 Q44 -15.1875 38.6484 -18.1172 Q33.2969 -21.0469 25.4844 -21.0469 Q16.2188 -21.0469 10.5 -16.875 Q4.7812 -12.7031 4.9844 -4.2969 ZM12.25 26.8594 Q12.25 16.6562 16.3047 11.9688 Q20.3594 7.2812 26.4688 7.2812 Q32.5156 7.2812 36.6172 11.9453 Q40.7188 16.6094 40.7188 26.5625 Q40.7188 36.0781 36.5 40.9141 Q32.2812 45.75 26.3125 45.75 Q20.4531 45.75 16.3516 40.9922 Q12.25 36.2344 12.25 26.8594 Z"
        /><glyph unicode="H" horiz-adv-x="72.2168" d="M8.0156 0 L8.0156 71.5781 L17.4844 71.5781 L17.4844 42.1875 L54.6875 42.1875 L54.6875 71.5781 L64.1562 71.5781 L64.1562 0 L54.6875 0 L54.6875 33.7344 L17.4844 33.7344 L17.4844 0 L8.0156 0 Z"
      /></font
    ></defs
    ><g style="fill:white; stroke:white;"
    ><rect x="0" y="0" width="815" style="clip-path:url(#clipPath1); stroke:none;" height="313"
    /></g
    ><g style="fill:white; text-rendering:optimizeSpeed; color-rendering:optimizeSpeed; image-rendering:optimizeSpeed; shape-rendering:crispEdges; stroke:white; color-interpolation:sRGB;"
    ><rect x="0" width="815" height="313" y="0" style="stroke:none;"
      /><path style="stroke:none;" d="M106 240 L738 240 L738 24 L106 24 Z"
    /></g
    ><g style="stroke-linecap:butt; fill-opacity:0.149; fill:rgb(38,38,38); text-rendering:geometricPrecision; image-rendering:optimizeQuality; color-rendering:optimizeQuality; stroke-linejoin:round; stroke:rgb(38,38,38); color-interpolation:linearRGB; stroke-width:0.8333; stroke-opacity:0.149;"
    ><line y2="24" style="fill:none;" x1="106" x2="106" y1="240"
      /><line y2="24" style="fill:none;" x1="211.3333" x2="211.3333" y1="240"
      /><line y2="24" style="fill:none;" x1="316.6667" x2="316.6667" y1="240"
      /><line y2="24" style="fill:none;" x1="422" x2="422" y1="240"
      /><line y2="24" style="fill:none;" x1="527.3333" x2="527.3333" y1="240"
      /><line y2="24" style="fill:none;" x1="632.6667" x2="632.6667" y1="240"
      /><line y2="24" style="fill:none;" x1="738" x2="738" y1="240"
      /><line y2="240" style="fill:none;" x1="738" x2="106" y1="240"
      /><line y2="168" style="fill:none;" x1="738" x2="106" y1="168"
      /><line y2="96" style="fill:none;" x1="738" x2="106" y1="96"
      /><line y2="24" style="fill:none;" x1="738" x2="106" y1="24"
      /><line x1="106" x2="738" y1="240" style="stroke-linecap:square; fill-opacity:1; fill:none; stroke-opacity:1;" y2="240"
      /><line x1="106" x2="738" y1="24" style="stroke-linecap:square; fill-opacity:1; fill:none; stroke-opacity:1;" y2="24"
      /><line x1="106" x2="106" y1="240" style="stroke-linecap:square; fill-opacity:1; fill:none; stroke-opacity:1;" y2="233.68"
      /><line x1="211.3333" x2="211.3333" y1="240" style="stroke-linecap:square; fill-opacity:1; fill:none; stroke-opacity:1;" y2="233.68"
      /><line x1="316.6667" x2="316.6667" y1="240" style="stroke-linecap:square; fill-opacity:1; fill:none; stroke-opacity:1;" y2="233.68"
      /><line x1="422" x2="422" y1="240" style="stroke-linecap:square; fill-opacity:1; fill:none; stroke-opacity:1;" y2="233.68"
      /><line x1="527.3333" x2="527.3333" y1="240" style="stroke-linecap:square; fill-opacity:1; fill:none; stroke-opacity:1;" y2="233.68"
      /><line x1="632.6667" x2="632.6667" y1="240" style="stroke-linecap:square; fill-opacity:1; fill:none; stroke-opacity:1;" y2="233.68"
      /><line x1="738" x2="738" y1="240" style="stroke-linecap:square; fill-opacity:1; fill:none; stroke-opacity:1;" y2="233.68"
      /><line x1="106" x2="106" y1="24" style="stroke-linecap:square; fill-opacity:1; fill:none; stroke-opacity:1;" y2="30.32"
      /><line x1="211.3333" x2="211.3333" y1="24" style="stroke-linecap:square; fill-opacity:1; fill:none; stroke-opacity:1;" y2="30.32"
      /><line x1="316.6667" x2="316.6667" y1="24" style="stroke-linecap:square; fill-opacity:1; fill:none; stroke-opacity:1;" y2="30.32"
      /><line x1="422" x2="422" y1="24" style="stroke-linecap:square; fill-opacity:1; fill:none; stroke-opacity:1;" y2="30.32"
      /><line x1="527.3333" x2="527.3333" y1="24" style="stroke-linecap:square; fill-opacity:1; fill:none; stroke-opacity:1;" y2="30.32"
      /><line x1="632.6667" x2="632.6667" y1="24" style="stroke-linecap:square; fill-opacity:1; fill:none; stroke-opacity:1;" y2="30.32"
      /><line x1="738" x2="738" y1="24" style="stroke-linecap:square; fill-opacity:1; fill:none; stroke-opacity:1;" y2="30.32"
    /></g
    ><g transform="translate(106,248.3333)" style="font-size:25px; fill:rgb(38,38,38); text-rendering:geometricPrecision; image-rendering:optimizeQuality; color-rendering:optimizeQuality; font-family:'SansSerif'; stroke:rgb(38,38,38); color-interpolation:linearRGB;"
    ><text x="-7" xml:space="preserve" y="26" style="stroke:none;"
      >0</text
    ></g
    ><g transform="translate(211.3333,248.3333)" style="font-size:25px; fill:rgb(38,38,38); text-rendering:geometricPrecision; image-rendering:optimizeQuality; color-rendering:optimizeQuality; font-family:'SansSerif'; stroke:rgb(38,38,38); color-interpolation:linearRGB;"
    ><text x="-14" xml:space="preserve" y="26" style="stroke:none;"
      >50</text
    ></g
    ><g transform="translate(316.6667,248.3333)" style="font-size:25px; fill:rgb(38,38,38); text-rendering:geometricPrecision; image-rendering:optimizeQuality; color-rendering:optimizeQuality; font-family:'SansSerif'; stroke:rgb(38,38,38); color-interpolation:linearRGB;"
    ><text x="-21" xml:space="preserve" y="26" style="stroke:none;"
      >100</text
    ></g
    ><g transform="translate(422,248.3333)" style="font-size:25px; fill:rgb(38,38,38); text-rendering:geometricPrecision; image-rendering:optimizeQuality; color-rendering:optimizeQuality; font-family:'SansSerif'; stroke:rgb(38,38,38); color-interpolation:linearRGB;"
    ><text x="-21" xml:space="preserve" y="26" style="stroke:none;"
      >150</text
    ></g
    ><g transform="translate(527.3333,248.3333)" style="font-size:25px; fill:rgb(38,38,38); text-rendering:geometricPrecision; image-rendering:optimizeQuality; color-rendering:optimizeQuality; font-family:'SansSerif'; stroke:rgb(38,38,38); color-interpolation:linearRGB;"
    ><text x="-21" xml:space="preserve" y="26" style="stroke:none;"
      >200</text
    ></g
    ><g transform="translate(632.6667,248.3333)" style="font-size:25px; fill:rgb(38,38,38); text-rendering:geometricPrecision; image-rendering:optimizeQuality; color-rendering:optimizeQuality; font-family:'SansSerif'; stroke:rgb(38,38,38); color-interpolation:linearRGB;"
    ><text x="-21" xml:space="preserve" y="26" style="stroke:none;"
      >250</text
    ></g
    ><g transform="translate(738,248.3333)" style="font-size:25px; fill:rgb(38,38,38); text-rendering:geometricPrecision; image-rendering:optimizeQuality; color-rendering:optimizeQuality; font-family:'SansSerif'; stroke:rgb(38,38,38); color-interpolation:linearRGB;"
    ><text x="-21" xml:space="preserve" y="26" style="stroke:none;"
      >300</text
    ></g
    ><g transform="translate(422.0003,282)" style="font-size:25px; fill:rgb(38,38,38); text-rendering:geometricPrecision; image-rendering:optimizeQuality; color-rendering:optimizeQuality; font-family:'SansSerif'; stroke:rgb(38,38,38); color-interpolation:linearRGB;"
    ><text x="-76" xml:space="preserve" y="26" style="stroke:none;"
      >Distance [cm]</text
    ></g
    ><g style="fill:rgb(38,38,38); text-rendering:geometricPrecision; image-rendering:optimizeQuality; color-rendering:optimizeQuality; stroke-linejoin:round; stroke:rgb(38,38,38); color-interpolation:linearRGB; stroke-width:0.8333;"
    ><line y2="24" style="fill:none;" x1="106" x2="106" y1="240"
      /><line y2="24" style="fill:none;" x1="738" x2="738" y1="240"
      /><line y2="240" style="fill:none;" x1="106" x2="112.32" y1="240"
      /><line y2="168" style="fill:none;" x1="106" x2="112.32" y1="168"
      /><line y2="96" style="fill:none;" x1="106" x2="112.32" y1="96"
      /><line y2="24" style="fill:none;" x1="106" x2="112.32" y1="24"
      /><line y2="240" style="fill:none;" x1="738" x2="731.68" y1="240"
      /><line y2="168" style="fill:none;" x1="738" x2="731.68" y1="168"
      /><line y2="96" style="fill:none;" x1="738" x2="731.68" y1="96"
      /><line y2="24" style="fill:none;" x1="738" x2="731.68" y1="24"
    /></g
    ><g transform="translate(97.6667,240)" style="font-size:25px; fill:rgb(38,38,38); text-rendering:geometricPrecision; image-rendering:optimizeQuality; color-rendering:optimizeQuality; font-family:'SansSerif'; stroke:rgb(38,38,38); color-interpolation:linearRGB;"
    ><text x="-14" xml:space="preserve" y="10" style="stroke:none;"
      >0</text
    ></g
    ><g transform="translate(97.6667,168)" style="font-size:25px; fill:rgb(38,38,38); text-rendering:geometricPrecision; image-rendering:optimizeQuality; color-rendering:optimizeQuality; font-family:'SansSerif'; stroke:rgb(38,38,38); color-interpolation:linearRGB;"
    ><text x="-28" xml:space="preserve" y="10" style="stroke:none;"
      >50</text
    ></g
    ><g transform="translate(97.6667,96)" style="font-size:25px; fill:rgb(38,38,38); text-rendering:geometricPrecision; image-rendering:optimizeQuality; color-rendering:optimizeQuality; font-family:'SansSerif'; stroke:rgb(38,38,38); color-interpolation:linearRGB;"
    ><text x="-42" xml:space="preserve" y="10" style="stroke:none;"
      >100</text
    ></g
    ><g transform="translate(97.6667,24)" style="font-size:25px; fill:rgb(38,38,38); text-rendering:geometricPrecision; image-rendering:optimizeQuality; color-rendering:optimizeQuality; font-family:'SansSerif'; stroke:rgb(38,38,38); color-interpolation:linearRGB;"
    ><text x="-42" xml:space="preserve" y="10" style="stroke:none;"
      >150</text
    ></g
    ><g transform="translate(50.6667,131.9999) rotate(-90)" style="font-size:25px; fill:rgb(38,38,38); text-rendering:geometricPrecision; image-rendering:optimizeQuality; color-rendering:optimizeQuality; font-family:'SansSerif'; stroke:rgb(38,38,38); color-interpolation:linearRGB;"
    ><text x="-63.5" xml:space="preserve" y="-6" style="stroke:none;"
      >Height [cm]</text
    ></g
    ><g style="stroke-linecap:butt; fill:rgb(0,114,189); text-rendering:geometricPrecision; image-rendering:optimizeQuality; color-rendering:optimizeQuality; stroke-linejoin:round; stroke:rgb(0,114,189); color-interpolation:linearRGB; stroke-width:3.3333;"
    ><path d="M106 38.4 L108.3407 38.2354 L110.6815 38.0984 L113.0222 37.9901 L115.363 37.9119 L117.7037 37.8649 L120.0444 37.8506 L122.3852 37.87 L124.7259 37.9246 L127.0667 38.0155 L129.4074 38.144 L131.7482 38.3114 L134.0889 38.5379 L136.4296 38.8517 L138.7704 39.2413 L141.1111 39.6941 L143.4519 40.1979 L145.7926 40.7403 L148.1333 41.3087 L150.4741 41.891 L152.8148 42.483 L155.1556 43.109 L157.4963 43.7691 L159.837 44.4605 L162.1778 45.1806 L164.5185 45.9266 L166.8593 46.6958 L169.2 47.4853 L171.5407 48.2925 L173.8815 49.1146 L176.2222 49.9488 L178.563 50.7924 L180.9037 51.6426 L183.2444 52.4968 L185.5852 53.3521 L187.9259 54.2058 L190.2667 55.0591 L192.6074 55.9229 L194.9482 56.7979 L197.2889 57.6836 L199.6296 58.5797 L201.9704 59.4858 L204.3111 60.4014 L206.6519 61.3263 L208.9926 62.2599 L211.3333 63.202 L213.6741 64.1521 L216.0148 65.1099 L218.3556 66.0749 L220.6963 67.0468 L223.037 68.0251 L225.3778 69.0096 L227.7185 69.9998 L230.0593 70.9953 L232.4 71.9958 L234.7407 73.0008 L237.0815 74.01 L239.4222 75.0229 L241.763 76.0393 L244.1037 77.0586 L246.4444 78.0806 L248.7852 79.1048 L251.1259 80.1441 L253.4667 81.2209 L255.8074 82.3329 L258.1481 83.4772 L260.4889 84.6511 L262.8296 85.8517 L265.1704 87.0762 L267.5111 88.3218 L269.8519 89.5857 L272.1926 90.8651 L274.5333 92.1571 L276.8741 93.4589 L279.2148 94.7678 L281.5556 96.0808 L283.8963 97.3952 L286.237 98.7082 L288.5778 100.0263 L290.9185 101.4561 L293.2592 103.0565 L295.6 104.8636 L297.9407 106.913 L300.2815 109.2408 L302.6222 111.8828 L304.963 114.8749 L307.3037 118.2528 L309.6444 122.0526 L311.9852 126.31 L314.3259 139.9114 L316.6667 157.9258 L319.0074 169.4396 L321.3481 180.7447 L323.6889 191.6998 L326.0296 202.1248 L328.3704 211.8399 L330.7111 220.6649 L333.0518 228.4199 L335.3926 234.925 L337.7333 240" style="fill:none; fill-rule:evenodd;"
      /><path d="M106 38.4 L108.6599 38.0912 L111.3199 37.8874 L113.9798 37.7987 L116.6397 37.8355 L119.2997 38.0077 L121.9596 38.3258 L124.6195 38.754 L127.2795 39.2422 L129.9394 39.7879 L132.5993 40.3887 L135.2593 41.0423 L137.9192 41.7461 L140.5791 42.4978 L143.2391 43.295 L145.899 44.1353 L148.5589 45.0162 L151.2189 45.9355 L153.8788 46.8906 L156.5387 47.8791 L159.1987 48.8988 L161.8586 49.947 L164.5185 51.0216 L167.1785 52.1199 L169.8384 53.2398 L172.4983 54.3786 L175.1582 55.5341 L177.8182 56.7038 L180.4781 57.8854 L183.138 59.0763 L185.798 60.2743 L188.4579 61.4782 L191.1178 62.7261 L193.7778 64.0326 L196.4377 65.3926 L199.0976 66.8011 L201.7576 68.253 L204.4175 69.7432 L207.0774 71.2669 L209.7374 72.8188 L212.3973 74.394 L215.0572 75.9873 L217.7172 77.5938 L220.3771 79.2085 L223.037 80.8261 L225.697 82.4418 L228.3569 84.0504 L231.0168 85.647 L233.6768 87.2264 L236.3367 88.7837 L238.9966 90.3137 L241.6566 91.8114 L244.3165 93.2809 L246.9764 94.7317 L249.6364 96.1688 L252.2963 97.5969 L254.9562 99.021 L257.6161 100.446 L260.2761 101.8766 L262.936 103.3177 L265.5959 104.7743 L268.2559 106.2511 L270.9158 107.753 L273.5758 109.2748 L276.2357 110.8069 L278.8956 112.351 L281.5556 113.909 L284.2155 115.4829 L286.8754 117.0745 L289.5354 118.6858 L292.1953 120.3186 L294.8552 121.9747 L297.5151 123.6562 L300.1751 125.3649 L302.835 127.1026 L305.4949 128.8714 L308.1549 130.6729 L310.8148 132.5093 L313.4747 134.4194 L316.1347 136.52 L318.7946 138.8058 L321.4546 141.2616 L324.1145 143.872 L326.7744 146.6217 L329.4344 149.4953 L332.0943 152.4775 L334.7542 155.5531 L337.4142 158.7307 L340.0741 162.4261 L342.734 166.7349 L345.3939 171.5783 L348.0539 176.8777 L350.7138 182.5545 L353.3737 188.53 L356.0337 194.7255 L358.6936 201.4949 L361.3535 209.7436 L364.0135 219.1602 L366.6734 229.3705 L369.3333 240" style="fill:none; fill-rule:evenodd;"
      /><path d="M106 38.4 L109.0642 38.2393 L112.1285 38.1774 L115.1927 38.2113 L118.257 38.3379 L121.3212 38.5541 L124.3855 38.8572 L127.4497 39.2462 L130.5139 39.7158 L133.5782 40.2597 L136.6424 40.8716 L139.7067 41.5453 L142.7709 42.2746 L145.8351 43.0532 L148.8994 43.8749 L151.9636 44.7334 L155.0279 45.6226 L158.0921 46.5361 L161.1564 47.4678 L164.2206 48.4113 L167.2849 49.373 L170.3491 50.4014 L173.4133 51.497 L176.4776 52.6542 L179.5418 53.8673 L182.6061 55.1305 L185.6703 56.4381 L188.7345 57.7845 L191.7988 59.164 L194.863 60.5708 L197.9273 61.9992 L200.9915 63.4435 L204.0558 64.8981 L207.12 66.3572 L210.1842 67.8151 L213.2485 69.2662 L216.3127 70.7076 L219.377 72.1611 L222.4412 73.6322 L225.5054 75.1206 L228.5697 76.6261 L231.6339 78.1485 L234.6982 79.6876 L237.7624 81.2431 L240.8267 82.8148 L243.8909 84.4026 L246.9551 86.0062 L250.0194 87.6254 L253.0836 89.2599 L256.1479 90.9095 L259.2121 92.5741 L262.2764 94.2534 L265.3406 95.9472 L268.4048 97.6552 L271.4691 99.3773 L274.5333 101.1132 L277.5976 102.8628 L280.6618 104.6257 L283.7261 106.4035 L286.7903 108.2115 L289.8546 110.0559 L292.9188 111.9398 L295.983 113.8662 L299.0473 115.8383 L302.1115 117.8591 L305.1758 119.9316 L308.24 122.0591 L311.3042 124.2446 L314.3685 126.491 L317.4327 128.8016 L320.497 131.1795 L323.5612 133.6276 L326.6255 136.149 L329.6897 138.7479 L332.7539 141.569 L335.8182 144.6741 L338.8824 148.0036 L341.9467 151.4979 L345.0109 155.0974 L348.0751 158.7423 L351.1394 162.3731 L354.2036 165.9301 L357.2679 169.419 L360.3321 172.9016 L363.3964 176.3949 L366.4606 179.9159 L369.5248 183.4815 L372.5891 187.1087 L375.6533 190.8144 L378.7176 194.6157 L381.7818 198.5294 L384.846 202.5846 L387.9103 206.813 L390.9745 211.201 L394.0388 215.7329 L397.103 220.3928 L400.1673 225.1652 L403.2315 230.0344 L406.2957 234.9845 L409.36 240" style="fill:none; fill-rule:evenodd;"
      /><path d="M106 38.4 L110.0644 37.7638 L114.1288 37.313 L118.1931 37.1422 L122.2575 37.3458 L126.3219 37.9546 L130.3863 38.7663 L134.4506 39.7388 L138.515 40.8513 L142.5794 42.0834 L146.6438 43.4144 L150.7081 44.8238 L154.7725 46.291 L158.8369 47.7953 L162.9013 49.3163 L166.9657 50.8332 L171.03 52.3257 L175.0944 53.823 L179.1588 55.3758 L183.2232 56.9861 L187.2875 58.6559 L191.3519 60.3872 L195.4163 62.182 L199.4807 64.0424 L203.5451 65.9704 L207.6094 67.968 L211.6738 70.0541 L215.7382 72.2541 L219.8026 74.5525 L223.8669 76.9328 L227.9313 79.3786 L231.9957 81.8734 L236.0601 84.4007 L240.1245 86.944 L244.1888 89.4868 L248.2532 92.0128 L252.3176 94.5053 L256.382 96.9479 L260.4463 99.336 L264.5107 101.7136 L268.5751 104.0871 L272.6395 106.4566 L276.7038 108.8223 L280.7682 111.1842 L284.8326 113.5427 L288.897 115.8979 L292.9613 118.2499 L297.0257 120.5988 L301.0901 122.945 L305.1545 125.2884 L309.2188 127.6293 L313.2832 129.9679 L317.3476 132.3043 L321.412 134.6386 L325.4763 136.9711 L329.5407 139.3018 L333.6051 141.6311 L337.6695 143.959 L341.7339 146.2853 L345.7982 148.6099 L349.8626 150.9327 L353.927 153.2536 L357.9914 155.5727 L362.0558 157.8898 L366.1201 160.2048 L370.1845 162.5177 L374.2489 164.8285 L378.3133 167.1371 L382.3777 169.4434 L386.442 171.7473 L390.5064 174.0488 L394.5708 176.3479 L398.6351 178.6445 L402.6995 180.9385 L406.7639 183.2298 L410.8283 185.5184 L414.8927 187.8043 L418.957 190.0873 L423.0214 192.3653 L427.0858 194.6342 L431.1501 196.8954 L435.2145 199.1505 L439.2789 201.4011 L443.3433 203.6489 L447.4077 205.8955 L451.472 208.1426 L455.5364 210.3918 L459.6008 212.6446 L463.6652 214.9028 L467.7296 217.1679 L471.7939 219.4389 L475.8583 221.7126 L479.9227 223.9891 L483.9871 226.2682 L488.0515 228.5501 L492.1158 230.8347 L496.1802 233.122 L500.2446 235.412 L504.309 237.7047 L508.3733 240" style="fill:none; fill-rule:evenodd; stroke:rgb(217,83,25);"
      /><path d="M106 38.4 L111.4475 37.8163 L116.8951 37.9069 L122.3426 38.7688 L127.7902 39.8436 L133.2377 41.0791 L138.6853 42.462 L144.1328 43.9786 L149.5803 45.6155 L155.0279 47.3593 L160.4754 49.1965 L165.923 51.1136 L171.3705 53.0971 L176.8181 55.1337 L182.2656 57.2098 L187.7131 59.3119 L193.1607 61.4267 L198.6082 63.5406 L204.0558 65.6401 L209.5033 67.7551 L214.9508 69.9784 L220.3984 72.2935 L225.8459 74.6784 L231.2935 77.1107 L236.741 79.5684 L242.1886 82.0291 L247.6361 84.4708 L253.0836 86.8713 L258.5312 89.2176 L263.9787 91.5685 L269.4263 93.928 L274.8738 96.2829 L280.3214 98.62 L285.7689 100.9264 L291.2164 103.1889 L296.664 105.3943 L302.1115 107.5346 L307.5591 109.6468 L313.0066 111.7385 L318.4542 113.8065 L323.9017 115.8475 L329.3492 117.8583 L334.7968 119.8357 L340.2443 121.7765 L345.6919 123.6773 L351.1394 125.535 L356.5869 127.3463 L362.0345 129.1082 L367.482 130.8253 L372.9296 132.5032 L378.3771 134.1455 L383.8246 135.7556 L389.2722 137.3372 L394.7197 138.8936 L400.1673 140.4285 L405.6148 141.9453 L411.0623 143.4477 L416.5099 144.939 L421.9574 146.4229 L427.405 147.9028 L432.8525 149.3824 L438.3001 150.8651 L443.7476 152.3544 L449.1952 153.8538 L454.6427 155.367 L460.0902 156.8973 L465.5378 158.4485 L470.9853 160.0238 L476.4329 161.627 L481.8804 163.2615 L487.3279 164.9251 L492.7755 166.5968 L498.2231 168.2768 L503.6706 169.9685 L509.1181 171.6749 L514.5657 173.3992 L520.0132 175.1446 L525.4608 176.9142 L530.9083 178.7113 L536.3558 180.5388 L541.8033 182.4001 L547.2509 184.2983 L552.6984 186.2366 L558.146 188.218 L563.5936 190.2458 L569.0411 192.3232 L574.4886 194.4532 L579.9362 196.6391 L585.3837 198.884 L590.8312 201.1912 L596.2788 203.5661 L601.7263 206.2834 L607.1739 209.4833 L612.6214 213.1013 L618.069 217.0735 L623.5165 221.3356 L628.9641 225.8235 L634.4116 230.473 L639.8591 235.2198 L645.3066 240" style="fill:none; fill-rule:evenodd; stroke:rgb(217,83,25);"
      /><path d="M106 38.4 L111.5114 37.8298 L117.0228 37.5426 L122.5341 37.5814 L128.0455 37.989 L133.5569 38.8085 L139.0683 40.0147 L144.5797 41.5324 L150.091 43.3195 L155.6024 45.3338 L161.1138 47.5334 L166.6252 49.876 L172.1366 52.3196 L177.6479 54.8222 L183.1593 57.3415 L188.6707 59.8459 L194.1821 62.4275 L199.6935 65.1083 L205.2048 67.8761 L210.7162 70.7186 L216.2276 73.6237 L221.739 76.579 L227.2504 79.5724 L232.7617 82.5916 L238.2731 85.6243 L243.7845 88.6584 L249.2959 91.6815 L254.8073 94.6815 L260.3187 97.6462 L265.83 100.5632 L271.3414 103.4203 L276.8528 106.2054 L282.3642 108.9264 L287.8755 111.6501 L293.3869 114.3797 L298.8983 117.1115 L304.4097 119.8416 L309.9211 122.5665 L315.4325 125.2822 L320.9438 127.9851 L326.4552 130.6714 L331.9666 133.3374 L337.478 135.9792 L342.9893 138.5932 L348.5008 141.1757 L354.0121 143.7228 L359.5235 146.2308 L365.0349 148.696 L370.5463 151.1146 L376.0576 153.4828 L381.569 155.797 L387.0804 158.0533 L392.5918 160.248 L398.1032 162.3802 L403.6145 164.4692 L409.1259 166.5214 L414.6373 168.5387 L420.1487 170.5231 L425.6601 172.4766 L431.1714 174.401 L436.6828 176.2984 L442.1942 178.1709 L447.7056 180.0202 L453.2169 181.8484 L458.7283 183.6576 L464.2397 185.4496 L469.7511 187.2264 L475.2625 188.99 L480.7739 190.7424 L486.2852 192.4855 L491.7966 194.2213 L497.308 195.9519 L502.8194 197.679 L508.3308 199.4049 L513.8422 201.1313 L519.3536 202.8591 L524.8649 204.5835 L530.3763 206.3022 L535.8877 208.0134 L541.399 209.7152 L546.9104 211.4059 L552.4218 213.0835 L557.9332 214.7463 L563.4446 216.3925 L568.9559 218.0201 L574.4673 219.6275 L579.9787 221.2128 L585.4901 222.7742 L591.0015 224.3103 L596.5129 225.8294 L602.0242 227.3343 L607.5356 228.8234 L613.047 230.2953 L618.5583 231.7487 L624.0698 233.1821 L629.5812 234.5941 L635.0925 235.9833 L640.6039 237.3483 L646.1153 238.6877 L651.6266 240" style="fill:none; fill-rule:evenodd; stroke:rgb(217,83,25);"
      /><path d="M106 38.4 L108.4897 38.0115 L110.9794 37.6557 L113.4691 37.3477 L115.9588 37.1023 L118.4485 36.9345 L120.9382 36.8592 L123.4279 36.8914 L125.9176 37.0459 L128.4073 37.3339 L130.897 37.6915 L133.3867 38.0899 L135.8764 38.5271 L138.3661 39.0011 L140.8558 39.5099 L143.3455 40.0516 L145.8351 40.6242 L148.3248 41.2257 L150.8145 41.8541 L153.3042 42.5074 L155.7939 43.1837 L158.2836 43.881 L160.7733 44.5972 L163.263 45.3305 L165.7527 46.0788 L168.2424 46.8401 L170.7321 47.6125 L173.2218 48.394 L175.7115 49.1827 L178.2012 49.9764 L180.6909 50.7733 L183.1806 51.5714 L185.6703 52.3686 L188.16 53.1631 L190.6497 53.9527 L193.1394 54.7357 L195.6291 55.51 L198.1188 56.2896 L200.6085 57.085 L203.0982 57.8951 L205.5879 58.7193 L208.0776 59.5567 L210.5673 60.4065 L213.057 61.2679 L215.5467 62.1402 L218.0364 63.0225 L220.5261 63.9139 L223.0158 64.8138 L225.5054 65.7213 L227.9951 66.6356 L230.4848 67.5559 L232.9745 68.4815 L235.4642 69.4113 L237.9539 70.3448 L240.4436 71.2811 L242.9333 72.2194 L245.423 73.1589 L247.9127 74.0987 L250.4024 75.0382 L252.8921 75.9763 L255.3818 76.9125 L257.8715 77.8459 L260.3612 78.7809 L262.8509 79.7424 L265.3406 80.7327 L267.8303 81.751 L270.32 82.7965 L272.8097 83.8682 L275.2994 84.9654 L277.7891 86.0871 L280.2788 87.2324 L282.7685 88.4006 L285.2582 89.5906 L287.7479 90.8018 L290.2376 92.0331 L292.7273 93.2837 L295.217 94.5528 L297.7067 95.8394 L300.1964 97.1428 L302.6861 98.462 L305.1758 99.7962 L307.6655 101.1445 L310.1552 102.6904 L312.6449 105.1034 L315.1346 108.4013 L317.6242 112.5345 L320.1139 117.4537 L322.6036 123.1094 L325.0933 129.4522 L327.583 136.4327 L330.0727 144.0327 L332.5624 159.8497 L335.0521 182.1502 L337.5418 199.8645 L340.0315 210.1115 L342.5212 219.3937 L345.0109 227.3906 L347.5006 233.7352 L349.9903 238.0606 L352.48 240" style="fill:none; fill-rule:evenodd; stroke:rgb(237,177,32);"
      /><path d="M106 38.4 L108.5535 38.2006 L111.1071 38.0541 L113.6606 37.9659 L116.2141 37.9413 L118.7677 37.9855 L121.3212 38.1039 L123.8747 38.2866 L126.4283 38.5123 L128.9818 38.7788 L131.5354 39.0839 L134.0889 39.4254 L136.6424 39.801 L139.196 40.2087 L141.7495 40.6462 L144.303 41.1113 L146.8566 41.6018 L149.4101 42.1156 L151.9636 42.6505 L154.5172 43.2041 L157.0707 43.7745 L159.6242 44.3593 L162.1778 44.9564 L164.7313 45.5636 L167.2849 46.1787 L169.8384 46.7996 L172.3919 47.4407 L174.9454 48.1195 L177.499 48.834 L180.0525 49.5821 L182.6061 50.3616 L185.1596 51.1705 L187.7131 52.0066 L190.2667 52.8679 L192.8202 53.7524 L195.3737 54.6578 L197.9273 55.5821 L200.4808 56.5232 L203.0343 57.479 L205.5879 58.4475 L208.1414 59.4264 L210.6949 60.4139 L213.2485 61.4076 L215.802 62.4056 L218.3556 63.4057 L220.9091 64.4059 L223.4626 65.4041 L226.0162 66.3981 L228.5697 67.386 L231.1232 68.3655 L233.6768 69.3346 L236.2303 70.3017 L238.7838 71.2901 L241.3374 72.2995 L243.8909 73.3285 L246.4444 74.376 L248.998 75.4405 L251.5515 76.5208 L254.1051 77.6154 L256.6586 78.7232 L259.2121 79.8427 L261.7657 80.9727 L264.3192 82.1118 L266.8727 83.2588 L269.4263 84.4122 L271.9798 85.5708 L274.5333 86.7332 L277.0869 87.8982 L279.6404 89.0644 L282.1939 90.2305 L284.7475 91.3951 L287.301 92.5571 L289.8546 93.7149 L292.4081 94.8674 L294.9616 96.0527 L297.5151 97.3147 L300.0687 98.6662 L302.6222 100.12 L305.1758 101.6889 L307.7293 103.3858 L310.2828 105.2234 L312.8364 107.2146 L315.3899 109.372 L317.9435 111.7087 L320.497 114.2373 L323.0505 116.9706 L325.604 119.9215 L328.1576 123.1028 L330.7111 126.5272 L333.2646 130.2077 L335.8182 134.1569 L338.3717 149.4714 L340.9253 182.5213 L343.4788 199.3235 L346.0323 211.7098 L348.5858 222.269 L351.1394 230.6893 L353.6929 236.6591 L356.2465 239.8665 L358.8 240" style="fill:none; fill-rule:evenodd; stroke:rgb(237,177,32);"
      /><path d="M106 38.4 L108.1279 38.1787 L110.2559 38.0083 L112.3838 37.8905 L114.5118 37.8274 L116.6397 37.821 L118.7677 37.8731 L120.8956 37.9858 L123.0236 38.1588 L125.1515 38.3793 L127.2795 38.6431 L129.4074 38.9484 L131.5354 39.2933 L133.6633 39.6757 L135.7912 40.094 L137.9192 40.546 L140.0471 41.03 L142.1751 41.544 L144.303 42.0862 L146.431 42.6545 L148.5589 43.2472 L150.6869 43.8622 L152.8148 44.4978 L154.9428 45.152 L157.0707 45.8228 L159.1987 46.5084 L161.3266 47.2069 L163.4545 47.9164 L165.5825 48.635 L167.7104 49.3621 L169.8384 50.1332 L171.9663 50.9611 L174.0943 51.8423 L176.2222 52.7733 L178.3502 53.7504 L180.4781 54.7702 L182.6061 55.8291 L184.734 56.9236 L186.862 58.05 L188.9899 59.2049 L191.1178 60.3846 L193.2458 61.5858 L195.3737 62.8047 L197.5017 64.0378 L199.6296 65.2817 L201.7576 66.5327 L203.8855 67.7873 L206.0135 69.0419 L208.1414 70.293 L210.2694 71.537 L212.3973 72.7705 L214.5253 73.9898 L216.6532 75.1998 L218.7811 76.4298 L220.9091 77.6816 L223.037 78.9543 L225.165 80.2467 L227.2929 81.5577 L229.4209 82.8864 L231.5488 84.2317 L233.6768 85.5925 L235.8047 86.9679 L237.9327 88.3566 L240.0606 89.7577 L242.1886 91.1701 L244.3165 92.5928 L246.4444 94.0247 L248.5724 95.4648 L250.7003 96.912 L252.8283 98.3652 L254.9562 99.8235 L257.0842 101.2857 L259.2121 102.7507 L261.3401 104.2177 L263.468 105.6854 L265.5959 107.1529 L267.7239 108.619 L269.8519 110.0828 L271.9798 111.5432 L274.1078 112.999 L276.2357 114.4494 L278.3636 115.8932 L280.4916 117.3518 L282.6195 118.9764 L284.7475 120.7878 L286.8754 122.7765 L289.0034 124.9329 L291.1313 127.2476 L293.2592 129.7111 L295.3872 132.314 L297.5151 135.0468 L299.6431 137.8999 L301.771 140.864 L303.899 143.9296 L306.0269 147.0872 L308.1549 150.3273 L310.2828 153.6404 L312.4108 164.6016 L314.5387 206.0285 L316.6667 240" style="fill:none; fill-rule:evenodd; stroke:rgb(237,177,32);"
    /></g
    ><g style="fill:white; text-rendering:optimizeSpeed; color-rendering:optimizeSpeed; image-rendering:optimizeSpeed; shape-rendering:crispEdges; stroke:white; color-interpolation:sRGB;"
    ><path style="stroke:none;" d="M725 126 L725 36 L572 36 L572 126 Z"
    /></g
    ><g transform="translate(630.8461,52.4543)" style="font-size:22.5px; text-rendering:geometricPrecision; color-rendering:optimizeQuality; image-rendering:optimizeQuality; font-family:'SansSerif'; color-interpolation:linearRGB;"
    ><text x="0" xml:space="preserve" y="9" style="stroke:none;"
      >Design 1</text
    ></g
    ><g style="stroke-linecap:butt; fill:rgb(0,114,189); text-rendering:geometricPrecision; image-rendering:optimizeQuality; color-rendering:optimizeQuality; stroke-linejoin:round; stroke:rgb(0,114,189); color-interpolation:linearRGB; stroke-width:3.3333;"
    ><line y2="52.4543" style="fill:none;" x1="577.0082" x2="627.09" y1="52.4543"
    /></g
    ><g transform="translate(630.8461,81)" style="font-size:22.5px; text-rendering:geometricPrecision; color-rendering:optimizeQuality; image-rendering:optimizeQuality; font-family:'SansSerif'; color-interpolation:linearRGB;"
    ><text x="0" xml:space="preserve" y="9" style="stroke:none;"
      >Design 2</text
    ></g
    ><g style="stroke-linecap:butt; fill:rgb(217,83,25); text-rendering:geometricPrecision; image-rendering:optimizeQuality; color-rendering:optimizeQuality; stroke-linejoin:round; stroke:rgb(217,83,25); color-interpolation:linearRGB; stroke-width:3.3333;"
    ><line y2="81" style="fill:none;" x1="577.0082" x2="627.09" y1="81"
    /></g
    ><g transform="translate(630.8461,109.5457)" style="font-size:22.5px; text-rendering:geometricPrecision; color-rendering:optimizeQuality; image-rendering:optimizeQuality; font-family:'SansSerif'; color-interpolation:linearRGB;"
    ><text x="0" xml:space="preserve" y="9" style="stroke:none;"
      >Design 3</text
    ></g
    ><g style="stroke-linecap:butt; fill:rgb(237,177,32); text-rendering:geometricPrecision; image-rendering:optimizeQuality; color-rendering:optimizeQuality; stroke-linejoin:round; stroke:rgb(237,177,32); color-interpolation:linearRGB; stroke-width:3.3333;"
    ><line y2="109.5457" style="fill:none;" x1="577.0082" x2="627.09" y1="109.5457"
    /></g
    ><g style="stroke-linecap:butt; fill:rgb(38,38,38); text-rendering:geometricPrecision; color-rendering:optimizeQuality; image-rendering:optimizeQuality; stroke:rgb(38,38,38); color-interpolation:linearRGB; stroke-width:0.8333;"
    ><path d="M572 126 L572 36 L725 36 L725 126 Z" style="fill:none; fill-rule:evenodd;"
    /></g
  ></g
></svg
>
