228.426973 107.601716 41.663109 72.766269 0.130270 0.011243 
224.257898 129.040743 39.626532 19.441702 0.118720 0.010346 
199.365518 104.600875 46.057723 75.015054 0.152160 0.012533 
234.619020 183.978105 33.445046 48.065771 0.084940 0.007472 
201.559735 67.704242 51.993587 17.073937 0.197390 0.016550 
206.910159 21.873988 61.193051 73.385749 0.240810 0.017748 
156.720981 121.332890 50.349955 72.121284 0.171110 0.013329 
256.225083 19.088346 50.851134 76.037011 0.183670 0.014974 
148.237456 100.611127 56.259111 40.066485 0.228780 0.019002 
259.556440 233.732976 28.380905 18.761522 0.061690 0.005433 
167.798933 40.432945 67.232742 37.532606 0.307500 0.024038 
184.424717 47.980833 60.239525 4.687010 0.253170 0.020257 
138.719252 66.979084 68.060833 2.270536 0.315320 0.024562 
139.135055 7.042542 95.773910 9.361042 0.483460 0.029862 
179.229991 74.206064 55.240759 65.673850 0.216670 0.017719 
205.682000 33.837595 58.450333 35.686871 0.240990 0.019518 
144.818321 28.576438 80.740618 35.640607 0.405250 0.028913 
104.180693 90.314403 71.981249 26.473377 0.340370 0.025637 
157.596903 2.577998 87.404456 53.774117 0.423740 0.027075 
220.535974 93.681334 44.555152 38.642021 0.149000 0.012850 
